{
    "Image_Build_IDs": {
        "adsp": "ADSP.VT.5.4-00298-NICOBAR-1", 
        "boot": "BOOT.XF.4.0-00219-NICOBARLAZ-2", 
        "btfm": "BTFM.CHE.2.1.4-00575-QCACHROMZ-1", 
        "btfm_proc_cmc": "BTFM.CMC.1.2.0-00178-QCACHROMZ-1", 
        "cdsp": "CDSP.VT.2.4-00182-NICOBAR-1", 
        "common": "Nicobar.LA.2.0.1-00088-STD.PROD-1", 
        "glue": "GLUE.NICOBAR_LA.2.0-00039-NOOP_TEST-1", 
        "modem": "MPSS.AT.4.3.1-00391-NICOBAR_GEN_PACK-1", 
        "rpm": "RPM.BF.1.10-00161-NICOBARAAAAANAZR-1", 
        "tz": "TZ.XF.5.1.1-00117-NICOBARAAAAANAZT-1", 
        "tz_apps": "TZ.APPS.2.0-00113-NICOBARAAAAANAZT-1", 
        "video": "VIDEO.VE.5.4-00032-PROD-1", 
        "wdsp": "WDSP.9340.3.0-00029-W9340AAAAAAAZQ-1", 
        "wlan": "WLAN.HL.3.0.2-00597-QCAHLSWMTPLZ-1"
    }, 
    "Metabuild_Info": {
        "Meta_Build_ID": "Nicobar.LA.2.0.1-00088-STD.PROD-1", 
        "Product_Flavor": "asic", 
        "Time_Stamp": "2021-03-02 22:18:07"
    }, 
    "Version": "1.0"
}